Sample	Tx3_vs_Tx1_at_Day0	Tx3_vs_Tx1_at_Day2	Tx3_vs_Tx1_at_Day8	Day2_vs_Day0_Tx1	Day8_vs_Day2_Tx1	Day8_vs_Day0_Tx1	Day2_vs_Day0_Tx2	Day8_vs_Day2_Tx2	Day8_vs_Day0_Tx2
Tx1_Days0_Rep1	1	0	0	1	0	1	0	0	0
Tx1_Days0_Rep2	1	0	0	1	0	1	0	0	0
Tx1_Days0_Rep3	1	0	0	1	0	1	0	0	0
Tx1_Days0_Rep4	1	0	0	1	0	1	0	0	0
Tx1_Days0_Rep5	1	0	0	1	0	1	0	0	0
Tx1_Days0_Rep6	1	0	0	1	0	1	0	0	0
Tx1_Days0_Rep7	1	0	0	1	0	1	0	0	0
Tx1_Days0_Rep8	1	0	0	1	0	1	0	0	0
Tx1_Days2_Rep1	0	1	0	2	1	0	0	0	0
Tx1_Days2_Rep2	0	1	0	2	1	0	0	0	0
Tx1_Days2_Rep3	0	1	0	2	1	0	0	0	0
Tx1_Days2_Rep4	0	1	0	2	1	0	0	0	0
Tx1_Days2_Rep5	0	1	0	2	1	0	0	0	0
Tx1_Days2_Rep6	0	1	0	2	1	0	0	0	0
Tx1_Days2_Rep7	0	1	0	2	1	0	0	0	0
Tx1_Days2_Rep8	0	1	0	2	1	0	0	0	0
Tx1_Days8_Rep1	0	0	1	0	2	2	0	0	0
Tx1_Days8_Rep2	0	0	1	0	2	2	0	0	0
Tx1_Days8_Rep3	0	0	1	0	2	2	0	0	0
Tx1_Days8_Rep4	0	0	1	0	2	2	0	0	0
Tx1_Days8_Rep5	0	0	1	0	2	2	0	0	0
Tx1_Days8_Rep6	0	0	1	0	2	2	0	0	0
Tx1_Days8_Rep7	0	0	1	0	2	2	0	0	0
Tx1_Days8_Rep8	0	0	1	0	2	2	0	0	0
Tx3_Days0_Rep1	2	0	0	0	0	0	1	0	1
Tx3_Days0_Rep2	2	0	0	0	0	0	1	0	1
Tx3_Days0_Rep3	2	0	0	0	0	0	1	0	1
Tx3_Days0_Rep4	2	0	0	0	0	0	1	0	1
Tx3_Days0_Rep5	2	0	0	0	0	0	1	0	1
Tx3_Days0_Rep6	2	0	0	0	0	0	1	0	1
Tx3_Days0_Rep7	2	0	0	0	0	0	1	0	1
Tx3_Days0_Rep8	2	0	0	0	0	0	1	0	1
Tx3_Days2_Rep1	0	2	0	0	0	0	2	1	0
Tx3_Days2_Rep2	0	2	0	0	0	0	2	1	0
Tx3_Days2_Rep3	0	2	0	0	0	0	2	1	0
Tx3_Days2_Rep4	0	2	0	0	0	0	2	1	0
Tx3_Days2_Rep5	0	2	0	0	0	0	2	1	0
Tx3_Days2_Rep6	0	2	0	0	0	0	2	1	0
Tx3_Days2_Rep7	0	2	0	0	0	0	2	1	0
Tx3_Days2_Rep8	0	2	0	0	0	0	2	1	0
Tx3_Days8_Rep1	0	0	2	0	0	0	0	2	2
Tx3_Days8_Rep2	0	0	2	0	0	0	0	2	2
Tx3_Days8_Rep3	0	0	2	0	0	0	0	2	2
Tx3_Days8_Rep4	0	0	2	0	0	0	0	2	2
Tx3_Days8_Rep5	0	0	2	0	0	0	0	2	2
Tx3_Days8_Rep6	0	0	2	0	0	0	0	2	2
Tx3_Days8_Rep7	0	0	2	0	0	0	0	2	2
Tx3_Days8_Rep8	0	0	2	0	0	0	0	2	2
